00310
00315
00320
00325
00330
00335
00340
00344
00345
00350
00355
00359
00360
00365
00370
00375
00380
00384
00385
00390
00395
00400
00405
00410
00415
00420
00424
00425
00480
00485
00490
00495
00500
00505
00510
00515
00520
00525
00530
00535
00540
00545
00550
00555
00560
00565
00570
00575
00580
00585
00589
00590
00595
00600
00605
00610
00615
00620
00625
00630
00635
00640
00645
00650
00655
00660
00665
00670
00675
00680
00681
00685
00690
00695
00700
00705
00710
00715
00720
00724
00725
00730
00735
00740
00745
00749
00750
00755
00760
00765
00770
00775
00780
00785
00790
00795
00800
00805
00810
00815
00820
00825
00830
00835
00839
00840
00845
00850
00855
00860
00865
00870
00875
00880
00885
00890
00895
00900
00905
00910
00915
00920
00925
00930
00935
00940
00945
00950
00955
00960
00965
00970
00975
00980
00985
00990
00995
01000
01005
01010
01015
01020
01025
01028
01029
01030
01035
01040
01045
01050
01055
01059
01060
01065
01070
01075
01080
01085
01090
01094
01095
01100
01105
01110
01115
01120
01125
01130
01135
01140
01145
01150
01155
01160
01165
01170
01175
01180
01185
01190
01195
01200
01205
01209
01210
01215
01220
01224
01225
01230
01235
01240
01245
01250
01255
01260
01265
01270
01275
01280
01285
01290
01295
01300
01305
01310
01315
01370
01375
01380
01385
01390
01395
01400
01405
01410
01415
01420
01424
01425
01430
01435
01440
01444
01445
01450
01454
01455
01460
01465
01470
01475
01480
01485
01490
01495
01500
01503
01504
01505
01510
01515
01520
01525
01530
01535
01540
01545
01550
01555
01607
01608
01609
01610
01611
01612
01613
01614
01615
01620
01625
01626
01627
01628
01629
01630
01631
01632
01633
01634
01635
01638
01639
01640
01645
01650
01655
01660
01665
01670
01725
01730
01735
01740
01745
01750
01755
01760
01764
01765
01770
01775
01780
01785
01790
01795
01800
01805
01810
01815
01820
01825
01830
01835
01840
01845
01850
01855
01860
01864
01865
01870
01875
01880
01885
01890
01895
01900
01905
01910
01915
01920
01925
01930
01935
01940
01945
01950
01955
01960
01965
01970
01975
01980
01985
01990
01995
02000
02005
02010
02015
02020
02025
02030
02035
02040
02045
02050
02055
02060
02065
02070
02075
02080
02085
02090
02095
02100
02105
02160
02165
02170
02175
02180
02185
02190
02195
02200
02205
02210
02215
02220
02225
02230
02235
02240
02245
02250
02255
02260
02265
02270
02275
02280
02285
02290
02295
02300
02305
02310
02315
02320
02325
02330
02335
02340
02345
02350
02355
02360
02365
02370
02375
02380
02385
02390
02395
02400
02405
02410
02415
02420
02425
02430
02435
02440
02445
02450
02455
02460
02465
02470
02475
02480
02485
02490
02495
02500
02504
02505
02510
02515
02520
02525
02530
02535
02540
02545
02550
02555
02560
02565
02570
02575
02580
02585
02590
02595
02600
02605
02610
02615
02620
02625
02630
02635
02640
02645
02650
02655
02660
02665
02670
02675
02680
02685
02690
02695
02700
02705
02710
02715
02720
02725
02730
02735
02740
02745
02750
02755
02760
02765
02818
02819
02820
02824
02825
02830
02835
02840
02845
02850
02853
02854
02855
02860
02865
02870
02875
02880
02885
02890
02895
02950
02955
02960
02965
02970
02975
02980
02985
02990
02995
03000
03005
03010
03015
03020
03025
03030
03035
03040
03045
03050
03055
03060
03065
03070
03075
03130
03135
03140
03145
03150
03155
03160
03165
03170
03175
03180
03185
03190
03195
03200
03205
03210
03214
03215
03220
03225
03230
03235
03240
03245
03250
03255
03260
03265
03270
03275
03280
03285
03290
03295
03300
03305
03310
03315
03320
03325
03329
03330
03335
03340
03345
03350
03355
03360
03365
03370
03375
03380
03385
03390
03395
03400
03405
03410
03415
03420
03425
03430
03435
03440
03445
03450
03455
03460
03465
03470
03475
03480
03485
03490
03495
03500
03505
03510
03515
03520
03524
03525
03526
03527
03528
03529
03530
03535
03540
03545
03550
03554
03555
03560
03565
03570
03575
03579
03580
03585
03590
03595
03600
03605
03610
03615
03620
03625
03630
03635
03640
03645
03649
03650
03655
03660
03665
03670
03675
03680
03685
03690
03694
03695
03700
03705
03710
03715
03720
03723
03724
03725
03730
03735
03740
03745
03750
03755
03760
03765
03770
03775
03830
03835
03840
03845
03850
03855
03860
03865
03920
03925
03930
03935
03940
03945
03950
03955
03960
03965
03970
03975
03980
03985
03990
03995
04000
04005
04010
04015
04020
04025
04030
04035
04038
04039
04040
04045
04050
04055
04060
04065
04070
04075
04080
04085
04090
04095
04100
04105
04110
04115
04120
04125
04130
04135
04140
04145
04150
04155
04160
04165
04170
04175
04180
04185
04190
04195
04200
04205
04210
04215
04220
04222
04223
04224
04225
04229
04230
04235
04240
04245
04250
04255
04260
04265
04268
04269
04270
04275
04280
04285
04290
04295
04300
04305
04360
04365
04370
04375
04380
04385
04390
04395
04400
04405
04410
04415
04420
04425
04430
04435
04440
04445
04450
04455
04460
04465
04470
04525
04530
04535
04540
04545
04550
04555
04560
04565
04620
04625
04630
04635
04640
04645
04650
04655
04660
04665
04670
04675
04680
04685
04689
04690
04695
04700
04705
04710
04715
04720
04725
04730
04735
04790
04795
04800
04805
04810
04815
04820
04825
04830
04835
04840
04845
04850
04855
04860
04865
04870
04875
04880
04885
04890
04895
04899
04900
04905
04908
04909
04910
04915
04920
04922
04923
04924
04925
04929
04930
04935
04940
04945
04950
04955
04960
04965
04970
04975
04980
04985
04990
04995
05000
05005
05010
05015
05020
05025
05030
05035
05040
05045
05050
05055
05060
05065
05070
05075
05080
05085
05090
05095
05100
05105
05110
05115
05120
05125
05130
05135
05140
05145
05150
05155
05160
05165
05170
05174
05175
05180
05185
05190
05195
05200
05205
05210
05215
05220
05225
05230
05235
05240
05245
05250
05255
05260
05265
05270
05275
05280
05285
05290
05295
05300
05305
05310
05315
05320
05375
05380
05385
05390
05395
05400
05405
05410
05415
05420
05475
05480
05485
05490
05495
05500
05505
05510
05515
05520
05524
05525
05530
05535
05540
05545
05550
05555
05560
05565
05570
05575
05580
05585
05590
05595
05600
05605
05610
05615
05620
05625
05630
05635
05640
05645
05650
05655
05660
05665
05670
05673
05674
05675
05680
05685
05690
05695
05700
05705
05710
05715
05720
05725
05730
05735
05739
05740
05743
05744
05745
05750
05755
05760
05765
05770
05775
05780
05785
05790
05795
05800
05805
05810
05815
05820
05825
05830
05835
05840
05895
05900
05955
05960
05965
05970
06025
06030
06035
06040
06045
06050
06055
06110
06115
06120
06125
06130
06135
06140
06145
06150
06155
06160
06165
06170
06175
06180
06185
06190
06195
06200
06204
06205
06210
06215
06219
06220
06225
06230
06235
06236
06290
06294
06295
06300
06305
06310
06315
06316
06317
06370
06375
06380
06383
06384
06385
06390
06395
06400
06405
06410
06415
06420
06425
06430
06435
06440
06445
06450
06455
06460
06464
06465
06470
06475
06480
06485
06490
06495
06500
06505
06510
06515
06520
06525
06530
06535
06540
06545
06549
06550
06555
06560
06565
06570
06575
06580
06585
06590
06595
06600
06605
06610
06615
06620
06625
06630
06635
06640
06645
06650
06655
06659
06660
06665
06670
06675
06678
06679
06680
06685
06690
06695
06700
06705
06710
06714
06715
06720
06725
06730
06735
06740
06745
06750
06754
06755
06760
06765
06770
06775
06780
06785
06790
06795
06799
06800
06803
06804
06805
06810
06815
06820
06825
06830
06833
06834
06835
06840
06845
06850
06855
06860
06865
06870
06875
06880
06935
06940
06943
06944
06945
06950
06955
06960
06965
06970
06975
06980
06985
06990
06995
07000
07004
07005
07010
07015
07020
07025
07030
07035
07040
07045
07050
07055
07060
07065
07070
07075
07080
07085
07090
07095
07100
07105
07110
07115
07117
07118
07119
07120
07125
07130
07135
07140
07145
07150
07155
07160
07165
07170
07225
07230
07235
07240
07245
07250
07255
07260
07265
07270
07275
07280
07285
07290
07295
07300
07305
07310
07315
07320
07325
07329
07330
07335
07340
07345
07350
07355
07359
07360
07365
07370
07375
07378
07379
07380
07384
07385
07390
07395
07400
07405
07410
07414
07415
07420
07425
07430
07435
07440
07445
07450
07455
07460
07465
07470
07475
07480
07485
07490
07495
07500
07505
07510
07515
07569
07570
07575
07580
07585
07590
07595
07600
07605
07610
07615
07620
07625
07630
07635
07640
07645
07650
07655
07660
07665
07669
07670
07675
07680
07685
07690
07695
07700
07705
07710
07715
07720
07725
07730
07735
07738
07739
07740
07745
07750
07755
07760
07765
07770
07775
07780
07785
07790
07795
07800
07803
07804
07805
07810
07815
07820
07823
07824
07825
07830
07835
07840
07845
07850
07855
07859
07860
07864
07865
07870
07875
07880
07885
07889
07890
07894
07895
07900
07905
07910
07915
07920
07924
07925
07930
07935
07938
07939
07940
07945
07950
07955
07960
07965
07970
07975
07980
07985
07990
07994
07995
08000
08003
08004
08005
08006
08007
08008
08009
08010
08015
08020
08025
08030
08035
08090
08095
08100
08105
08110
08115
08120
08125
08130
08135
08139
08140
08145
08150
08155
08160
08165
08170
08175
08180
08185
08190
08194
08195
08200
08205
08210
08214
08215
08220
08225
08230
08235
08240
08245
08250
08255
08260
08265
08270
08275
08279
08280
08284
08285
08290
08295
08300
08305
08309
08310
08315
08320
08325
08330
08335
08340
08345
08350
08355
08360
08364
08365
08370
08373
08374
08375
08380
08385
08389
08390
08395
08399
08400
08405
08410
08420
08425
08430
08435
08439
08440
08445
08450
08455
08459
08460
08465
08470
08475
08480
08485
08489
08490
08495
08500
08505
08510
08515
08519
08520
08525
08530
08535
08540
08545
08550
08555
08560
08565
08620
08625
08630
08635
08640
08645
08650
08655
08660
08665
08670
08675
08680
08685
08690
08695
08700
08705
08710
08715
08720
08725
08730
08735
08740
08745
08750
08755
08760
08765
08770
08775
08780
08784
08785
08790
08795
08800
08803
08804
08805
08810
08815
08820
08825
08830
08835
08840
08845
08850
08855
08859
08860
08865
08870
08873
08874
08875
08880
08885
08890
08894
08895
08900
08905
08910
08915
08920
08925
08930
08935
08940
08945
08950
08955
08958
08959
08960
08965
08970
08975
08980
08985
08990
08995
09000
09002
09003
09004
09005
09008
09009
09010
09015
09020
09025
09030
09034
09035
09038
09039
09040
09043
09044
09045
09050
09055
09059
09060
09065
09069
09070
09072
09073
09074
09075
09080
09085
09090
09095
09098
09099
09100
09105
09110
09115
09120
09125
09130
09135
09140
09145
09149
09150
09155
09158
09159
09160
09165
09170
09175
09179
09180
09185
09190
09195
09200
09205
09210
09215
09220
09225
09230
09235
09240
09245
09250
09255
09260
09265
09270
09275
09278
09279
09280
09285
09290
09295
09300
09305
09310
09315
09319
09320
09325
09330
09335
09340
09345
09400
09405
09410
09415
09420
09425
09430
09435
09440
09445
09450
09455
09460
09465
09470
09475
09479
09480
09485
09490
09494
09495
09500
09505
09510
09515
09520
09525
09530
09535
09540
09545
09550
09555
09560
09565
09569
09570
09574
09575
09630
09635
09640
09645
09650
09655
09660
09665
09670
09675
09680
09685
09690
09695
09699
09700
09705
09710
09715
09720
09725
09730
09735
09740
09745
09750
09755
09760
09765
09770
09775
09780
09785
09790
09795
09800
09805
09810
09815
09820
09825
09830
09835
09840
09845
09850
09855
09860
09865
09870
09875
09880
09885
09890
09895
09900
09905
09910
09915
09920
09925
09930
09935
09940
09945
09950
09955
09960
09965
09970
09975
09980
09985
09990
09995
10000
10005
10010
10015
10020
10025
10030
10035
10040
10045
10050
10055
10060
10065
10069
10070
10075
10080
10085
10090
10095
10100
10105
10110
10115
10119
10120
10125
10130
10135
10140
10145
10150
10155
10160
10165
10170
10175
10180
10235
10240
10245
10250
10255
10260
10265
10270
10275
10280
10285
10340
10345
10350
10354
10355
10360
10365
10370
10375
10380
10385
10390
10395
10400
10405
10410
10415
10420
10425
10430
10435
10440
10445
10450
10455
10460
10465
10470
10475
10479
10480
10485
10490
10495
10500
10505
10510
10515
10520
10525
10530
10535
10539
10540
10545
10550
10555
10560
10564
10565
10570
10574
10575
10580
10584
10585
10590
10595
10600
10605
10610
10615
10620
10625
10630
10635
10640
10645
10650
10705
10710
10715
10720
10725
10730
10735
10740
10745
10750
10755
10760
10765
10770
10775
10780
10785
10790
10795
10800
10805
10810
10815
10820
10825
10830
10835
10839
10840
10845
10850
10855
10860
10865
10870
10875
10880
10885
10890
10895
10899
10900
10905
10910
10915
10920
10925
10930
10935
10940
10945
10950
10955
10960
10964
10965
10970
10975
10980
10985
10990
10995
11000
11005
11010
11015
11019
11020
11025
11030
11035
11040
11045
11050
11054
11055
11060
11065
11070
11075
11080
11085
11090
11095
11099
11100
11105
11110
11115
11120
11125
11130
11135
11190
11195
11200
11205
11210
11215
11220
11225
11230
11235
11240
11245
11250
11255
11260
11265
11270
11275
11280
11285
11290
11295
11300
11355
11360
11365
11370
11375
11380
11385
11390
11395
11400
11405
11410
11415
11420
11425
11430
11435
11440
11445
11450
11455
11460
11464
11465
11470
11474
11475
11480
11485
11490
11495
11500
11505
11510
11515
11520
11525
11530
11535
11540
11545
11550
11555
11560
11565
11570
11575
11580
11585
11590
11595
11600
11605
11610
11615
11620
11625
11630
11635
11640
11645
11650
11655
11660
11665
11670
11675
11680
11685
11694
11695
11700
11705
11710
11714
11715
11720
11724
11725
11730
11735
11740
11745
11750
11755
11760
11765
11770
11775
11780
11785
11790
11795
11800
11805
11810
11815
11820
11825
11830
11835
11840
11845
11850
11855
11860
11865
11870
11875
11880
11885
11890
11895
11900
11905
11910
11915
11920
11925
11930
11935
11937
11938
11939
11940
11944
11945
11950
11955
11960
11965
11970
11975
11980
11985
11990
11995
12000
12005
12010
12015
12020
12025
12030
12035
12040
12045
12050
12105
12110
12115
12120
12125
12130
12135
12140
12145
12150
12155
12160
12165
12170
12175
12180
12185
12190
12195
12200
12205
12210
12215
12220
12225
12230
12235
12240
12245
12250
12255
12260
12265
12270
12275
12280
12285
12290
12295
12300
12305
12310
12315
12320
12325
12330
12335
12340
12345
12350
12355
12360
12365
12370
12375
12380
12385
12390
12395
12400
12405
12410
12415
12420
12425
12430
12435
12440
12445
12450
12455
12460
12465
12470
12475
12480
12485
12490
12495
12500
12505
12510
12565
12570
12575
12580
12585
12590
12595
12599
12600
12605
12610
12615
12620
12625
12630
12635
12640
12645
12650
12655
12660
12665
12670
12675
12680
12685
12689
12690
12695
12700
12705
12710
12715
12720
12725
12730
12735
12740
12745
12750
12755
12760
12765
12769
12770
12775
12780
12835
12840
12845
12850
12853
12854
12855
12860
12865
12870
12875
12880
12885
12890
12895
12900
12905
12910
12915
12923
12924
12925
12930
12933
12934
12935
12940
12944
12945
12950
12955
12960
13015
13019
13020
13025
13030
13035
13040
13045
13050
13055
13060
13065
13070
13075
13080
13085
13090
13095
13100
13105
13110
13115
13120
13125
13130
13135
13140
13145
13150
13155
13160
13165
13170
13175
13230
13235
13240
13245
13250
13255
13260
13262
13263
13264
13265
13266
13267
13268
13269
13275
13280
13285
13290
13295
13300
13305
13310
13315
13320
13325
13330
13335
13340
13345
13350
13355
13360
13365
13370
13375
13380
13385
13390
13395
13400
13405
13410
13415
13420
13425
13430
13434
13435
13440
13445
13450
13455
13460
13464
13465
13470
13475
13479
13480
13485
13490
13495
13500
13505
13510
13515
13520
13525
13530
13535
13540
13595
13600
13605
13610
13615
13620
13625
13630
13635
13640
13645
13650
13655
13660
13665
13670
13675
13730
13735
13740
13745
13750
13755
13760
13765
13770
13775
13780
13785
13790
13795
13800
13805
13810
13815
13820
13825
13830
13835
13840
13845
13847
13848
13849
13850
13855
13860
13865
13870
13875
13880
13885
13890
13895
13900
13905
13910
13915
13920
13925
13930
13935
13940
13945
14000
14005
14010
14015
14020
14025
14030
14035
14040
14045
14050
14055
14060
14065
14070
14075
14080
14085
14090
14095
14100
14105
14110
14115
14120
14125
14130
14135
14139
14140
14145
14150
14155
14160
14165
14169
14170
14175
14180
14185
14190
14195
14200
14205
14210
14215
14220
14225
14230
14235
14240
14245
14250
14255
14260
14265
14270
14275
14280
14285
14290
14295
14300
14305
14310
14315
14320
14325
14330
14335
14340
14345
14350
14355
14360
14365
14370
14375
14380
14385
14390
14395
14400
14404
14405
14410
14415
14420
14425
14430
14435
14440
14445
14449
14450
14455
14460
14465
14470
14475
14480
14485
14490
14495
14500
14505
14510
14515
14520
14575
14580
14585
14590
14595
14600
14605
14610
14612
14613
14614
14615
14618
14619
14620
14625
14630
14634
14635
14640
14645
14650
14655
14659
14660
14665
14670
14675
14680
14685
14690
14695
14700
14705
14710
14715
14720
14725
14730
14735
14740
14745
14750
14755
14760
14765
14770
14774
14775
14780
14785
14790
14795
14800
14805
14810
14815
14820
14825
14830
14835
14840
14845
14850
14855
14858
14859
14860
14865
14870
14875
14880
14885
14890
14895
14900
14905
14910
14915
14920
14925
14930
14935
14940
14945
14950
14955
15010
15015
15020
15025
15030
15035
15040
15045
15050
15055
15060
15065
15070
15075
15080
15085
15090
15095
15100
15105
15110
15115
15120
15124
15125
15130
15135
15190
15195
15200
15205
15210
15215
15220
15225
15230
15235
15240
15245
15250
15255
15260
15265
15270
15275
15280
15285
15290
15295
15300
15305
15310
15315
15320
15325
15330
15335
15340
15345
15350
15355
15360
15365
15370
15375
15380
15385
15390
15395
15400
15405
15410
15415
15420
15425
15430
15435
15440
15445
15450
15455
15460
15465
15470
15475
15480
15485
15490
15495
15500
15505
15510
15515
15520
15525
15530
15535
15540
15545
15550
15554
15555
15560
15565
15570
15575
15580
15585
15590
15595
15600
15605
15610
15615
15620
15625
15630
15635
15640
15645
15650
15655
15660
15665
15670
15675
15679
15680
15685
15690
15695
15699
15700
15702
15703
15704
15705
15709
15710
15715
15720
15725
15730
15735
15739
15740
15745
15750
15755
15760
15765
15770
15775
15780
15785
15790
15795
15800
15805
15810
15815
15820
15825
15880
15885
15890
15895
15900
15905
15910
15914
15915
15920
15925
15930
15985
15990
15995
16000
16005
16010
16015
16020
16025
16030
16035
16040
16045
16049
16050
16055
16060
16065
16070
16075
16080
16085
16090
16095
16100
16105
16110
16115
16119
16120
16125
16130
16135
16140
16145
16150
16155
16160
16165
16170
16175
16180
16185
16190
16191
16192
16193
16194
16195
16200
16205
16210
16215
16220
16225
16230
16235
16240
16245
16250
16255
16260
16265
16270
16275
16280
16285
16290
16295
16300
16305
16310
16315
16320
16325
16330
16335
16340
16342
16343
16344
16345
16348
16349
16350
16355
16360
16365
16370
16375
16380
16385
16389
16390
16395
16400
16405
16410
16415
16420
16425
16430
16435
16440
16445
16450
16455
16460
16465
16470
16475
16480
16485
16490
16495
16500
16505
16510
16515
16520
16525
16530
16535
16540
16545
16550
16555
16560
16565
16570
16575
16580
16585
16590
16595
16600
16605
16610
16615
16620
16625
16630
16635
16640
16645
16650
16655
16660
16665
16670
16675
16680
16685
16690
16695
16700
16705
16710
16715
16720
16725
16730
16735
16740
16744
16745
16750
16755
16760
16765
16770
16774
16775
16780
16785
16790
16795
16800
16804
16805
16810
16815
16819
16820
16824
16825
16830
16835
16838
16839
16840
16845
16849
16850
16854
16855
16860
16865
16869
16870
16875
16880
16885
16890
16895
16899
16900
16905
16910
16912
16913
16914
16915
16920
16925
16930
16935
16939
16940
16945
16950
16955
16960
16965
16970
16975
16979
16980
16985
16990
16994
16995
17000
17005
17010
17015
17020
17025
17030
17035
17040
17045
17050
17053
17054
17055
17060
17065
17070
17075
17080
17085
17090
17095
17098
17099
17100
17103
17104
17105
17160
17164
17165
17169
17170
17174
17175
17179
17180
17184
17185
17190
17195
17250
17255
17260
17315
17320
17325
17330
17335
17340
17345
17350
17355
17360
17415
17420
17425
17430
17435
17440
17445
17450
17455
17460
17465
17470
17475
17480
17485
17490
17495
17500
17505
17510
17515
17520
17525
17530
17535
17540
17545
17550
17555
17560
17565
17570
17575
17580
17585
17590
17592
17593
17594
17595
17598
17599
17600
17604
17605
17610
17615
17620
17625
17630
17635
17640
17645
17650
17655
17660
17665
17670
17675
17680
17685
17690
17695
17700
17705
17710
17715
17720
17725
17730
17735
17740
17745
17748
17749
17750
17751
17752
17753
17754
17755
17760
17765
17770
17775
17780
17785
17790
17795
17800
17805
17810
17815
17820
17825
17830
17835
17840
17845
17850
17855
17860
17865
17870
17875
17880
17885
17890
17895
17900
17905
17910
17915
17920
17925
17930
17935
17940
17945
17950
17955
17960
17965
17970
17975
17980
17985
17990
17995
18000
18005
18010
18015
18020
18025
18030
18035
18040
18045
18050
18055
18060
18065
18070
18075
18080
18085
18090
18095
18100
18105
18110
18115
18120
18125
18130
18135
18140
18145
18150
18154
18155
18160
18165
18170
18175
18180
18185
18190
18195
18200
18205
18210
18215
18220
18225
18230
18235
18240
18245
18249
18250
18255
18260
18265
18270
18275
18280
18285
18290
18295
18300
18305
18310
18315
18320
18325
18330
18335
18340
18344
18345
18350
18355
18360
18365
18370
18375
18380
18385
18390
18395
18400
18405
18410
18415
18420
18425
18429
18430
18435
18440
18445
18450
18455
18460
18465
18470
18475
18480
18485
18490
18495
18500
18505
18510
18515
18520
18525
18530
18535
18540
18545
18549
18550
18555
18560
18565
18570
18574
18575
18579
18580
18585
18590
18595
18600
18605
18610
18615
18620
18625
18630
18635
18640
18645
18650
18655
18660
18665
18670
18675
18680
18685
18690
18695
18700
18705
18710
18715
18720
18725
18780
18785
18790
18795
18800
18805
18810
18815
18820
18825
18830
18835
18840
18845
18850
18855
18860
18865
18870
18875
18880
18885
18890
18895
18950
18955
18960
18965
18970
18975
18980
18985
18990
18995
19000
19005
19010
19015
19020
19025
19030
19035
19040
19045
19050
19055
19060
19065
19070
19075
19080
19085
19090
19095
19100
19105
19110
19115
19120
19125
19130
19135
19140
19145
19150
19155
19160
19165
19170
19175
19180
19185
19189
19190
19195
19200
19205
19209
19210
19215
19219
19220
19225
19230
19234
19235
19240
19245
19250
19255
19260
19265
19270
19275
19279
19280
19285
19289
19290
19295
19300
19305
19310
19315
19320
19325
19330
19335
19340
19345
19350
19355
19360
19365
19370
19375
19380
19385
19390
19395
19400
19405
19410
19415
19420
19425
19430
19435
19440
19445
19450
19455
19460
19465
19470
19525
19530
19535
19540
19541
19543
19544
19545
19549
19550
19554
19555
19560
19565
19569
19570
19575
19580
19584
19585
19590
19645
19650
19655
19660
19665
19670
19675
19680
19685
19740
19745
19750
19755
19760
19765
19770
19775
19780
19785
19790
19795
19800
19805
19810
19815
19820
19825
19830
19835
19840
19845
19850
19855
19860
19865
19870
19875
19880
19885
19890
19895
19900
19905
19910
19915
19920
19925
19930
19935
19940
19945
19950
19955
19960
19964
19965
19970
19975
19980
19985
19990
19995
20000
20005
20010
20014
20015
20020
20025
20030
20035
20040
20045
20050
20055
20060
20062
20063
20064
20065
20070
20075
20080
20085
20089
20090
20095
20100
20105
20110
20165
20170
20175
20180
20185
20190
20195
20200
20205
20210
20215
20220
20225
20230
20235
20240
20245
20250
20255
20260
20265
20270
20275
20280
20285
20290
20295
20300
20305
20310
20315
20320
20325
20330
20335
20340
20345
20350
20355
20360
20365
20370
20375
20380
20385
20390
20395
20400
20404
20405
20410
20415
20420
20425
20429
20430
20435
20440
20445
20450
20455
20460
20465
20470
20475
20480
20485
20490
20495
20500
20505
20510
20515
20520
20525
20530
20535
20540
20545
20550
20555
20560
20565
20570
20575
20580
20635
20640
20695
20700
20705
20710
20715
20720
20725
20730
20735
20740
20745
20749
20750
20752
20753
20754
20755
20760
20761
20765
20770
20771
20775
20776
20780
20785
20790
20795
20800
20805
20810
20815
20820
20825
20830
20835
20840
20845
20850
20855
20860
20865
20870
20875
20880
20885
20890
20895
20899
20900
20905
20910
20915
20920
20925
20930
20935
20936
20937
20938
20939
20940
20941
20942
20943
20944
20945
20950
20955
20960
20965
20970
20975
20980
20985
20990
20995
21000
21005
21010
21065
21070
21075
21080
21083
21084
21085
21090
21095
21100
21105
21108
21109
21110
21114
21115
21120
21125
21129
21130
21135
21140
21145
21150
21155
21156
21157
21210
21215
21220
21224
21225
21230
21232
21233
21234
21235
21236
21237
21238
21239
21240
21242
21243
21244
21245
21248
21249
21250
21253
21254
21255
21260
21265
21320
21325
21330
21335
21340
21345
21350
21355
21360
21365
21370
21375
21380
21385
21390
21445
21450
21455
21460
21465
21470
21475
21480
21485
21490
21495
21500
21505
21510
21515
21520
21525
21530
21535
21540
21545
21550
21555
21560
21565
21570
21575
21580
21585
21590
21595
21600
21605
21610
21615
21620
21625
21630
21635
21640
21645
21650
21655
21660
21665
21670
21675
21680
21685
21690
21695
21700
21705
21710
21715
21720
21725
21730
21735
21740
21745
21750
21755
21760
21765
21770
21775
21780
21785
21790
21795
21800
21805
21810
21815
21820
21825
21830
21835
21840
21845
21850
21855
21860
21865
21870
21925
21930
21935
21940
21945
21949
21950
21955
21960
21965
21970
21975
21980
21985
21990
21995
22000
22005
22010
22015
22020
22025
22030
22035
22040
22045
22050
22055
22060
22065
22070
22075
22080
22085
22086
22090
22095
22100
22105
22110
22115
22120
22125
22130
22135
22140
22145
22150
22155
22160
22165
22170
22175
22180
22185
22190
22195
22200
22205
22210
22215
22220
22225
22230
22235
22240
22245
22250
22255
22260
22265
22270
22275
22280
22285
22290
22295
22300
22305
22310
22315
22320
22324
22325
22330
22335
22340
22345
22350
22355
22360
22365
22370
22375
22380
22385
22390
22395
22400
22405
22410
22415
22420
22425
22430
22435
22440
22445
22450
22455
22460
22465
22470
22475
22480
22485
22490
22495
22500
22505
22510
22515
22520
22525
22530
22535
22540
22544
22545
22550
22555
22560
22565
22570
22575
22580
22585
22590
22593
22594
22595
22600
22605
22610
22615
22620
22625
22630
22635
22640
22645
22650
22655
22660
22665
22670
22675
22680
22685
22690
22695
22700
22705
22710
22715
22720
22725
22730
22735
22740
22745
22750
22755
22760
22765
22770
22775
22780
22785
22790
22795
22800
22805
22810
22815
22820
22825
22830
22835
22840
22845
22850
22855
22860
22865
22870
22875
22880
22885
22889
22890
22894
22895
22900
22905
22910
22915
22920
22925
22930
22935
22940
22945
22950
22955
22960
22965
22970
22975
22980
22985
22990
22995
23000
23005
23010
23015
23020
23025
23030
23035
23040
23045
23050
23055
23060
23115
23120
23125
23130
23135
23140
23145
23150
23155
23160
23215
23220
23225
23230
23235
23240
23245
23250
23255
23260
23315
23320
23325
23330
23335
23340
23345
23350
23355
23360
23365
23370
23375
23380
23385
23390
23395
23400
23455
23460
23465
23470
23475
23480
23535
23540
23545
23550
23555
23560
23565
23570
23575
23580
23635
23640
23645
23650
23655
23660
23665
23670
23675
23680
23735
23740
23745
23750
23755
23760
23765
23770
23775
23780
23835
23840
23845
23850
23855
23860
23865
23870
23875
23880
23885
23890
23895
23900
23905
23910
23915
23920
23975
23980
23985
23990
23995
24000
24005
24010
24015
24070
24075
24080
24085
24090
24095
24100
24105
24110
24115
24170
24175
24180
24185
24240
24245
24250
24255
24260
24265
24270
24275
24280
24285
24340
24345
24350
24355
24360
24365
24370
24375
24380
24385
24390
24445
24450
24455
24460
24465
24470
24475
24480
24485
24490
24495
24500
24505
24510
24515
24520
24525
24530
24535
24540
24545
24550
24555
24560
24615
24620
24625
24630
24635
24640
24645
24650
24655
24660
24665
24670
24675
24680
24685
24690
24695
24750
24755
24760
24765
24770
24775
24780
24785
24790
24795
24800
24805
24810
24815
24820
24825
24830
24885
24890
24895
24900
24905
24910
24915
24920
24925
24930
24935
24940
24945
24950
24955
24960
24965
25020
25025
25030
25035
25040
25045
25050
25055
25060
25065
25120
25125
25130
25135
25140
25145
25150
25155
25160
25165
25170
25225
25230
25235
25240
25245
25250
25255
25260
25265
25270
25275
25330
25335
25340
25345
25350
25355
25360
25365
25370
25375
25380
25435
25440
25445
25450
25455
25460
25465
25470
25475
25480
25535
25540
25544
25545
25549
25550
25555
25560
25565
25570
25575
25580
25585
25590
25595
25600
25605
25610
25615
25620
25625
25630
25635
25640
25645
25650
25655
25660
25665
25670
25675
25680
25685
25690
25695
25700
25705
25710
25715
25720
25725
25730
25735
25740
25744
25745
25750
25755
25760
25762
25763
25764
25765
25770
25775
25780
25785
25790
25795
25800
25805
25810
25815
25820
25825
25829
25830
25835
25840
25845
25850
25855
25860
25865
25870
25875
25880
25885
25890
25895
25900
25904
25905
25909
25910
25915
25920
25925
25929
25930
25935
25940
25945
25950
25955
25960
25965
25970
25975
25979
25980
25984
25985
25990
25995
25999
26000
26005
26010
26015
26019
26020
26025
26030
26035
26040
26045
26047
26048
26049
26050
26055
26060
26065
26069
26070
26074
26075
26080
26085
26089
26090
26093
26094
26095
26099
26100
26105
26110
26115
26120
26125
26129
26130
26135
26140
26145
26149
26150
26155
26159
26160
26165
26167
26168
26169
26170
26175
26180
26184
26185
26190
26195
26200
26204
26205
26209
26210
26215
26220
26225
26228
26229
26230
26235
26240
26244
26245
26250
26255
26260
26265
26270
26275
26279
26280
26285
26290
26295
26300
26305
26310
26315
26320
26325
26330
26335
26389
26390
26395
26400
26405
26410
26415
26420
26425
26430
26435
26490
26495
26500
26505
26510
26515
26570
26575
26580
26585
26590
26595
26600
26605
26610
26615
26620
26625
26630
26635
26640
26645
26650
26655
26660
26665
26670
26675
26680
26685
26690
26695
26700
26705
26710
26715
26720
26725
26730
26735
26740
26745
26750
26755
26760
26765
26770
26775
26780
26785
26790
26795
26800
26805
26810
26815
26820
26825
26830
26835
26840
26845
26850
26855
26860
26864
26865
26866
26867
26868
26869
26870
26875
26880
26885
26890
26895
26900
26905
26910
26915
26920
26925
26930
26935
26940
26945
26950
26955
26960
26965
26968
26969
26970
26975
26980
26985
26990
26995
27000
27005
27009
27010
27015
27020
27025
27030
27034
27035
27040
27045
27048
27049
27050
27054
27055
27060
27065
27070
27074
27075
27078
27080
27085
27090
27095
27100
27105
27110
27115
27120
27125
27130
27135
27140
27144
27145
27150
27155
27160
27165
27169
27170
27175
27180
27185
27187
27188
27189
27190
27195
27200
27203
27204
27205
27210
27213
27214
27215
27220
27225
27230
27235
27240
27245
27250
27255
27260
27265
27270
27275
27280
27335
27340
27345
27350
27355
27360
27365
27420
27425
27430
27435
27439
27440
27449
27450
27455
27460
27465
27470
27475
27480
27489
27490
27495
27500
27505
27510
27520
27524
27525
27528
27529
27530
27533
27534
27535
27540
27545
27550
27555
27560
27565
27570
27575
27580
27584
27585
27590
27595
27600
27605
27610
27614
27615
27619
27620
27625
27629
27630
27634
27635
27640
27644
27645
27650
27655
27660
27665
27670
27675
27678
27679
27680
27685
27690
27694
27695
27700
27705
27710
27715
27720
27725
27730
27735
27740
27745
27750
27754
27755
27760
27765
27769
27770
27775
27780
27785
27790
27795
27800
27805
27810
27815
27820
27825
27830
27835
27890
27895
27900
27905
27910
27915
27920
27925
27930
27935
27940
27945
27950
27955
27960
27965
27970
27975
27980
27985
27990
27995
28000
28005
28010
28015
28020
28025
28030
28035
28040
28045
28050
28055
28060
28065
28070
28075
28080
28085
28090
28095
28100
28104
28105
28108
28110
28115
28120
28125
28130
28135
28140
28145
28150
28155
28160
28165
28170
28174
28175
28180
28185
28190
28195
28200
28205
28210
28215
28220
28225
28230
28235
28240
28245
28250
28259
28265
28270
28275
28280
28285
28290
28295
28298
28299
28300
28305
28310
28315
28320
28325
28330
28335
28340
28345
28350
28355
28360
28365
28370
28375
28380
28385
28389
28390
28405
28410
28415
28420
28425
28430
28435
28440
28445
28450
28455
28460
28465
28470
28475
28485
28490
28495
28500
28505
28510
28515
28520
28525
28529
28530
28535
28539
28540
28545
28550
28555
28560
28565
28570
28575
28580
28585
28590
28595
28600
28605
28610
28615
28619
28620
28635
28639
28640
28645
28650
28654
28655
28660
28665
28670
28673
28674
28675
28680
28685
28690
28695
28700
28705
28710
28715
28720
28725
28730
28735
28740
28745
28750
28755
28760
28765
28770
28775
28785
28789
28790
28795
28800
28805
28810
28815
28820
28825
28830
28835
28840
28845
28850
28855
28860
28865
28870
28875
28880
28885
28890
28895
28900
28905
28910
28915
28920
28925
28930
28935
28940
28945
28950
28955
28960
28965
28970
28975
28980
28985
28990
28995
29000
29005
29010
29015
29020
29025
29030
29035
29040
29045
29050
29055
29060
29065
29070
29080
29085
29090
29095
29100
29105
29115
29120
29125
29130
29134
29135
29140
29145
29150
29155
29160
29165
29170
29180
29185
29190
29195
29200
29205
29210
29215
29225
29230
29235
29240
29245
29255
29260
29270
29275
29280
29285
29290
29295
29320
29321
29350
29355
29360
29365
29370
29375
29380
29385
29390
29395
29400
29403
29404
29405
29410
29415
29420
29424
29425
29430
29435
29440
29445
29450
29454
29455
29460
29465
29470
29473
29474
29475
29478
29479
29480
29481
29535
29536
29538
29539
29540
29545
29550
29555
29560
29565
29569
29570
29575
29580
29585
29590
29645
29650
29651
29652
29653
29654
29655
29660
29664
29665
29670
29675
29680
29685
29690
29745
29750
29755
29760
29765
29770
29775
29830
29835
29840
29845
29850
29855
29860
29865
29870
29875
29879
29880
29935
29990
29995
30000
30005
30010
30015
30020
30025
30030
30035
30040
30045
30050
30055
30059
30060
30065
30070
30075
30080
30085
30089
30090
30095
30099
30100
30104
30105
30110
30115
30120
30125
30130
30135
30140
30145
30150
30205
30210
30215
30220
30225
30229
30230
30235
30240
30245
30250
30254
30255
30260
30265
30269
30270
30275
30280
30285
30290
30294
30295
30300
30304
30305
30306
30310
30315
30320
30325
30330
30335
30340
30345
30400
30405
30410
30415
30420
30425
30430
30435
30440
30445
30450
30505
30510
30515
30520
30521
30522
30523
30524
30525
30530
30535
30539
30540
30545
30550
30555
30560
30565
30570
30574
30575
30580
30585
30590
30595
30600
30605
30610
30615
30620
30625
30630
30635
30640
30645
30647
30648
30649
30650
30655
30660
30665
30670
30675
30680
30685
30690
30695
30697
30698
30699
30700
30705
30710
30714
30715
30719
30720
30725
30730
30735
30740
30745
30746
30747
30748
30749
30750
30752
30753
30754
30755
30760
30765
30770
30775
30780
30785
30790
30795
30799
30800
30805
30810
30815
30819
30820
30825
30830
30835
30840
30845
30900
30955
30960
30965
30970
30975
30980
30985
30990
30995
31000
31005
31006
31060
31065
31070
31075
31080
31085
31090
31095
31097
31098
31099
31100
31105
31110
31115
31120
31123
31124
31125
31129
31130
31135
31140
31145
31150
31155
31160
31165
31170
31175
31180
31185
31190
31195
31200
31205
31210
31215
31220
31225
31227
31228
31229
31230
31235
31240
31244
31245
31250
31255
31260
31265
31270
31275
31280
31335
31340
31345
31350
31355
31360
31365
31370
31375
31380
31385
31390
31395
31400
31405
31410
31415
31420
31425
31430
31435
31440
31445
31450
31455
31460
31465
31470
31475
31480
31485
31490
31495
31500
31505
31510
31515
31520
31525
31530
31535
31540
31545
31550
31555
31560
31565
31570
31575
31580
31585
31590
31594
31595
31600
31605
31610
31614
31615
31620
31625
31630
31635
31636
31637
31638
31639
31640
31641
31642
31643
31644
31645
31649
31655
31659
31660
31665
31670
31674
31675
31679
31680
31684
31685
31690
31695
31700
31704
31705
31710
31715
31720
31725
31730
31735
31740
31745
31750
31755
31760
31765
31770
31775
31780
31784
31785
31789
31790
31795
31799
31800
31802
31803
31804
31805
31810
31815
31820
31825
31830
31834
31835
31840
31845
31850
31855
31860
31865
31870
31875
31880
31885
31890
31895
31900
31955
31960
31965
31969
31970
31974
31975
31979
31980
31985
32040
32045
32050
32053
32054
32055
32060
32065
32070
32075
32080
32085
32090
32095
32100
32104
32105
32110
32165
32170
32175
32180
32185
32190
32195
32200
32205
32210
32215
32220
32225
32230
32234
32235
32240
32245
32250
32255
32260
32265
32270
32274
32275
32280
32285
32290
32295
32300
32305
32310
32315
32320
32325
32328
32329
32330
32335
32340
32345
32350
32355
32360
32365
32370
32375
32380
32385
32390
32445
32450
32455
32460
32515
32520
32525
32530
32535
32540
32545
32550
32555
32560
32565
32570
32575
32580
32585
32590
32595
32600
32605
32610
32665
32670
32675
32680
32685
32686
32687
32740
32745
32750
32755
32760
32765
32770
32775
32780
32785
32790
32795
32800
32805
32810
32815
32820
32825
32830
32835
32840
32844
32845
32846
32900
32905
32910
32915
32920
32925
32930
32935
32939
32940
32944
32945
32950
33005
33010
33014
33015
33020
33075
33080
33085
33090
33095
33150
33205
33210
33215
33270
33275
33280
33285
33290
33295
33350
33355
33360
33365
33370
33375
33380
33385
33390
33395
33400
33405
33410
33414
33415
33420
33425
33430
33485
33490
33495
33500
33505
33510
33514
33515
33518
33519
33520
33525
33530
33535
33540
33545
33550
33555
33560
33565
33570
33573
33574
33575
33580
33585
33590
33595
33600
33605
33610
33615
33620
33625
33626
33680
33685
33690
33695
33700
33705
33710
33715
33720
33725
33730
33735
33790
33795
33800
33805
33810
33815
33820
33825
33830
33835
33840
33845
33850
33855
33860
33865
33870
33875
33880
33885
33940
33945
33950
33955
33960
33965
33970
33975
33980
33985
33990
33995
34000
34005
34010
34015
34020
34025
34030
34035
34038
34039
34040
34044
34045
34050
34055
34060
34065
34069
34070
34075
34080
34085
34090
34095
34100
34105
34110
34115
34120
34125
34180
34185
34190
34195
34200
34205
34210
34215
34220
34225
34230
34235
34240
34245
34250
34255
34260
34265
34270
34275
34280
34285
34290
34295
34300
34305
34309
34310
34315
34320
34325
34330
34335
34340
34345
34350
34355
34360
34365
34370
34375
34380
34385
34390
34395
34400
34405
34410
34415
34418
34419
34420
34425
34427
34428
34429
34430
34435
34440
34444
34445
34450
34455
34460
34465
34470
34475
34480
34484
34485
34490
34495
34500
34505
34510
34515
34520
34525
34530
34535
34536
34537
34538
34540
34545
34550
34555
34560
34565
34570
34575
34580
34585
34590
34595
34600
34605
34610
34615
34618
34619
34620
34625
34630
34634
34635
34640
34642
34643
34644
34645
34650
34655
34710
34715
34720
34725
34730
34735
34740
34745
34750
34755
34760
34765
34770
34775
34780
34785
34840
34845
34850
34855
34860
34865
34870
34875
34880
34885
34890
34895
34900
34905
34910
34915
34920
34925
34930
34935
34940
34945
34950
34955
34960
34965
34970
34975
34980
34985
34990
34995
35000
35002
35005
35010
35015
35017
35020
35025
35030
35035
35040
35045
35050
35055
35060
35065
35070
35075
35080
35085
35090
35095
35100
35105
35110
35115
35120
35125
35130
35135
35140
35145
35150
35155
35160
35165
35170
35175
35180
35185
35190
35195
35200
35205
35210
35215
35220
35225
35230
35235
35240
35245
35250
35255
35260
35265
35270
35275
35280
35285
35290
35295
35300
35305
35310
35315
35320
35325
35330
35335
35340
35345
35350
35355
35360
35365
35370
35375
35380
35385
35390
35395
35400
35405
35410
35415
35420
35425
35430
35435
35440
35445
35450
35455
35460
35464
35465
35470
35475
35480
35485
35490
35495
35500
35505
35506
35510
35515
35520
35525
35530
35535
35540
35545
35550
35555
35560
35565
35570
35575
35580
35584
35585
35590
35595
35600
35605
35610
35615
35620
35625
35630
35635
35640
35644
35645
35648
35649
35650
35655
35660
35665
35670
35675
35680
35685
35690
35695
35700
35705
35710
35715
35720
35725
35729
35730
35735
35740
35745
35750
35755
35760
35765
35770
35775
35780
35785
35790
35795
35798
35799
35800
35805
35810
35815
35820
35824
35825
35830
35835
35840
35895
35900
35905
35910
35915
35920
35925
35930
35935
35940
35945
35950
35955
35958
35959
35960
35964
35965
35970
35974
35975
35980
35985
35990
35995
36000
36005
36010
36015
36020
36025
36030
36035
36040
36045
36050
36055
36110
36115
36120
36125
36130
36135
36140
36145
36150
36155
36160
36165
36170
36175
36180
36185
36190
36195
36200
36205
36210
36215
36220
36225
36230
36235
36240
36245
36250
36255
36260
36265
36270
36275
36280
36285
36290
36295
36300
36304
36305
36310
36315
36320
36325
36328
36329
36330
36334
36335
36340
36345
36350
36360
36365
36370
36397
36425
36430
36435
36440
36445
36450
36455
36460
36465
36468
36469
36470
36475
36480
36484
36485
36490
36494
36495
36500
36505
36510
36515
36520
36525
36580
36585
36640
36645
36650
36655
36660
36665
36670
36675
36680
36685
36690
36695
36700
36705
36710
36715
36720
36725
36730
36735
36740
36745
36750
36755
36760
36765
36770
36775
36780
36785
36790
36795
36800
36805
36810
36815
36820
36825
36830
36835
36838
36839
36840
36845
36849
36850
36855
36860
36865
36870
36875
36880
36885
36890
36895
36900
36905
36910
36915
36920
36924
36925
36930
36934
36935
36940
36945
36950
36955
36960
36965
36970
36974
36975
36979
36980
36985
36990
36995
37000
37005
37010
37065
37070
37125
37130
37132
37133
37134
37135
37140
37145
37150
37155
37160
37165
37170
37175
37179
37180
37185
37190
37195
37200
37205
37210
37215
37220
37275
37276
37330
37331
37385
37390
37395
37400
37405
37410
37415
37420
37425
37430
37435
37440
37445
37450
37454
37455
37458
37459
37460
37461
37462
37463
37464
37465
37470
37475
37480
37485
37490
37495
37500
37505
37510
37515
37520
37575
37580
37585
37590
37595
37599
37600
37605
37610
37615
37670
37671
37725
37780
37835
37840
37845
37850
37855
37860
37865
37870
37875
37879
37880
37885
37890
37895
37900
37905
37910
37915
37920
37924
37925
37930
37935
37936
37937
37938
37939
37940
37945
37950
37955
37960
37965
37970
37975
37980
37985
37990
37995
38000
38005
38010
38015
38020
38025
38030
38035
38040
38045
38050
38055
38060
38065
38069
38070
38075
38080
38085
38090
38094
38095
38100
38105
38109
38110
38115
38120
38124
38125
38130
38135
38140
38145
38150
38155
38160
38165
38170
38174
38175
38180
38185
38190
38195
38200
38205
38210
38213
38214
38215
38220
38224
38225
38230
38234
38235
38240
38245
38250
38254
38255
38260
38265
38270
38275
38280
38284
38285
38290
38295
38300
38305
38310
38315
38320
38323
38324
38325
38330
38335
38340
38345
38350
38355
38360
38365
38370
38425
38430
38435
38440
38445
38450
38455
38459
38460
38465
38470
38475
38480
38485
38490
38495
38500
38505
38510
38515
38520
38525
38530
38535
38540
38545
38550
38555
38560
38565
38570
38575
38580
38585
38590
38595
38600
38605
38610
38615
38620
38625
38630
38635
38640
38645
38650
38655
38660
38665
38670
38675
38680
38685
38688
38689
38690
38695
38700
38705
38710
38715
38720
38725
38730
38735
38740
38745
38750
38755
38759
38760
38765
38770
38775
38780
38785
38790
38795
38800
38805
38810
38815
38820
38825
38829
38830
38835
38840
38845
38850
38854
38855
38858
38859
38860
38865
38870
38872
38873
38874
38875
38876
38877
38878
38879
38880
38885
38890
38895
38900
38905
38910
38915
38920
38925
38930
38935
38940
38945
38950
38955
38960
38965
38970
38975
38980
38985
38990
38995
39000
39005
39060
39065
39070
39074
39075
39080
39085
39090
39095
39100
39104
39105
39109
39110
39113
39114
39115
39168
39169
39170
39174
39175
39177
39178
39179
39180
39185
39188
39189
39190
39195
39198
39199
39200
39205
39209
39210
39215
39220
39225
39230
39235
39240
39245
39249
39250
39255
39260
39265
39270
39275
39280
39285
39290
39295
39300
39305
39310
39315
39320
39325
39330
39335
39340
39345
39350
39355
39360
39365
39370
39373
39374
39375
39380
39385
39390
39395
39400
39405
39410
39415
39419
39420
39425
39430
39435
39438
39439
39440
39445
39449
39450
39455
39459
39460
39465
39469
39470
39475
39480
39485
39490
39495
39500
39555
39559
39560
39565
39570
39575
39580
39585
39590
39595
39650
39655
39660
39665
39670
39675
39679
39680
39685
39690
39695
39700
39705
39710
39715
39720
39723
39724
39725
39730
39735
39740
39745
39750
39755
39760
39765
39770
39775
39780
39784
39785
39790
39794
39795
39800
39805
39810
39815
39820
39825
39830
39835
39840
39845
39850
39855
39860
39865
39870
39875
39880
39885
39890
39895
39900
39905
39960
39964
39965
39970
39975
39980
39984
39990
39995
40000
40004
40005
40010
40015
40020
40025
40029
40030
40033
40034
40035
40039
40040
40044
40045
40050
40055
40059
40060
40065
40070
40075
40080
40085
40090
40095
40100
40105
40109
40110
40115
40119
40120
40124
40125
40130
40135
40190
40245
40250
40255
40260
40265
40270
40275
40280
40285
40290
40295
40300
40305
40309
40310
40315
40320
40325
40326
40328
40329
40330
40334
40335
40340
40345
40350
40355
40360
40364
40365
40370
40375
40379
40380
40385
40390
40445
40450
40455
40460
40465
40470
40475
40480
40485
40490
40495
40505
40510
40512
40513
40514
40515
40516
40517
40518
40519
40520
40521
40522
40523
40524
40525
40570
40575
40580
40585
40589
40590
40591
40592
40645
40650
40655
40660
40665
40670
40674
40675
40680
40734
40735
40739
40740
40745
40748
40749
40750
40755
40760
40764
40765
40770
40775
40780
40785
40790
40795
40850
40855
40860
40915
40920
40925
40980
40985
40990
40995
41000
41005
41006
41060
41065
41070
41075
41080
41085
41090
41095
41100
41105
41110
41115
41120
41125
41127
41128
41129
41130
41135
41140
41145
41150
41155
41160
41165
41170
41175
41180
41185
41190
41195
41200
41205
41210
41215
41220
41225
41230
41235
41240
41245
41250
41255
41260
41265
41270
41275
41280
41285
41287
41288
41289
41290
41295
41300
41305
41310
41315
41320
41325
41330
41335
41340
41345
41350
41355
41360
41365
41370
41375
41380
41385
41390
41395
41400
41405
41410
41415
41420
41425
41430
41435
41440
41445
41450
41455
41460
41465
41470
41475
41480
41482
41483
41484
41485
41490
41495
41500
41505
41510
41515
41520
41525
41530
41535
41540
41595
41600
41605
41610
41665
41670
41675
41680
41685
41690
41695
41700
41705
41710
41715
41720
41725
41730
41734
41735
41740
41745
41750
41755
41760
41765
41770
41775
41830
41835
41840
41845
41850
41855
41860
41865
41870
41875
41880
41885
41890
41895
41900
41903
41904
41905
41906
41907
41908
41909
41910
41915
41920
41925
41930
41935
41940
41945
41950
41954
41955
41960
41965
41970
41975
41978
41979
41980
41984
41985
41989
41990
41995
42000
42005
42010
42015
42020
42025
42030
42035
42040
42045
42050
42055
42060
42064
42065
42070
42075
42080
42084
42085
42090
42095
42100
42105
42110
42115
42120
42125
42130
42135
42140
42145
42150
42155
42160
42165
42170
42175
42180
42185
42189
42190
42192
42193
42194
42195
42200
42205
42210
42213
42214
42215
42220
42223
42224
42225
42230
42235
42240
42245
42250
42305
42310
42315
42320
42325
42330
42335
42340
42345
42350
42355
42360
42365
42370
42375
42380
42384
42385
42390
42395
42399
42400
42404
42405
42415
42419
42420
42425
42429
42430
42435
42439
42440
42445
42450
42455
42460
42465
42470
42475
42480
42484
42485
42490
42495
42500
42505
42510
42514
42515
42519
42520
42525
42529
42530
42535
42540
42545
42550
42555
42560
42565
42570
42575
42580
42585
42590
42595
42600
42655
42660
42665
42670
42675
42680
42685
42690
42695
42700
42705
42710
42715
42720
42725
42730
42735
42740
42745
42750
42755
42760
42764
42765
42770
42775
42780
42785
42790
42795
42800
42805
42810
42815
42820
42825
42830
42835
42840
42845
42850
42855
42860
42864
42865
42870
42875
42880
42885
42890
42895
42900
42905
42910
42915
42920
42925
42930
42935
42940
42945
43000
43005
43010
43015
43020
43025
43030
43032
43033
43034
43035
43040
43045
43050
43055
43060
43065
43070
43075
43080
43085
43090
43095
43100
43105
43110
43115
43170
43175
43180
43185
43240
43245
43250
43251
43305
43310
43315
43320
43325
43330
43335
43340
43344
43345
43350
43355
43360
43415
43420
43421
43475
43480
43481
43535
43540
43545
43550
43555
43560
43565
43570
43575
43580
43585
43590
43595
43600
43605
43610
43615
43620
43625
43630
43635
43640
43645
43650
43655
43660
43665
43670
43675
43680
43682
43683
43684
43685
43690
43695
43699
43700
43705
43709
43710
43715
43720
43725
43730
43735
43740
43745
43750
43755
43760
43765
43770
43775
43780
43784
43785
43790
43794
43795
43800
43805
43810
43815
43819
43820
43824
43825
43830
43835
43840
43845
43849
43850
43855
43860
43865
43870
43875
43880
43885
43890
43895
43900
43905
43910
43915
43920
43925
43930
43935
43940
43945
43950
43955
43960
43964
43965
43970
43974
43975
43980
43984
43985
43990
43993
43994
43995
44000
44005
44010
44015
44020
44075
44080
44085
44090
44095
44100
44105
44110
44115
44120
44125
44130
44135
44140
44145
44200
44205
44210
44214
44215
44219
44220
44224
44225
44230
44235
44240
44245
44250
44255
44260
44265
44319
44320
44375
44380
44385
44390
44395
44400
44405
44410
44415
44420
44425
44430
44435
44440
44445
44450
44455
44460
44465
44470
44475
44480
44485
44490
44495
44500
44505
44510
44515
44520
44525
44530
44535
44540
44545
44550
44555
44560
44565
44570
44575
44580
44585
44590
44595
44600
44605
44610
44615
44620
44625
44630
44635
44639
44640
44645
44650
44655
44660
44665
44670
44675
44680
44685
44690
44695
44700
44705
44710
44715
44720
44725
44730
44735
44740
44745
44750
44755
44760
44765
44770
44775
44780
44785
44790
44793
44794
44795
44800
44801
44802
44803
44804
44805
44810
44815
44820
44825
44830
44835
44840
44845
44850
44855
44860
44915
44969
44970
44975
44980
44985
44990
44995
45000
45005
45010
45015
45019
45020
45024
45025
45030
45035
45040
45045
45050
45055
45060
45065
45067
45068
45069
45070
45073
45074
45075
45079
45080
45085
45089
45090
45095
45100
45104
45105
45110
45114
45115
45120
45122
45123
45124
45125
45130
45135
45140
45145
45150
45155
45160
45165
45170
45175
45178
45179
45180
45185
45189
45190
45195
45200
45205
45210
45215
45220
45221
45222
45223
45224
45225
45228
45229
45230
45235
45240
45244
45245
45249
45250
45254
45255
45260
45265
45270
45275
45276
45277
45278
45279
45280
45281
45282
45283
45284
45285
45286
45287
45288
45289
45290
45291
45292
45293
45294
45295
45296
45297
45298
45299
45300
45301
45302
45303
45304
45305
45306
45307
45308
45309
45310
45311
45312
45313
45314
45315
45316
45317
45318
45319
45320
45321
45322
45323
45324
45325
45326
45327
45328
45329
45330
45331
45332
45333
45334
45335
45336
45337
45338
45339
45340
45341
45342
45343
45344
45345
45346
45347
45348
45349
45350
45351
45352
45353
45354
45355
45356
45357
45358
45359
45360
45361
45362
45363
45364
45365
45366
45367
45368
45369
45370
45371
45372
45373
45374
45375
45376
45377
45378
45379
45380
45385
45390
45393
45394
45395
45399
45400
45401
45402
45403
45404
45405
45406
45407
45408
45409
45410
45411
45412
45413
45414
45415
45416
45417
45418
45419
45420
45421
45422
45423
45424
45425
45430
45434
45435
45440
45444
45445
45450
45453
45454
45455
45456
45457
45458
45459
45460
45464
45465
45466
45467
45468
45469
45470
45471
45472
45473
45474
45475
45476
45477
45478
45479
45480
45485
45490
45495
45497
45498
45499
45500
45501
45502
45503
45504
45505
45506
45507
45508
45509
45510
45511
45512
45513
45514
45515
45516
45517
45518
45519
45520
45521
45522
45523
45524
45525
45526
45527
45528
45529
45530
45531
45532
45533
45534
45535
45536
45537
45538
45539
45540
45541
45542
45543
45544
45545
45546
45547
45575
45580
45585
45590
45594
45595
45596
45600
45605
45610
45615
45620
45625
45630
45635
45640
45650
45655
45660
45665
45670
45675
45680
45685
45690
45695
45700
45705
45710
45715
45720
45725
45730
45735
45740
45745
45746
45750
45751
45752
45755
45760
45765
45770
45775
45780
45785
45790
45791
45794
45795
45796
45800
45805
45810
45815
45820
45825
45830
45835
45840
45845
45850
45855
45860
45865
45870
45875
45880
45885
45890
45895
45900
45905
45910
45914
45915
45920
45925
45926
45930
45935
45940
45945
45950
45955
45960
45965
45970
45971
45975
46030
46035
46040
46045
46050
46055
46060
46065
46070
46125
46130
46135
46140
46145
46150
46155
46160
46165
46170
46175
46180
46185
46190
46195
46200
46205
46210
46215
46220
46225
46230
46235
46240
46245
46250
46255
46260
46265
46270
46275
46280
46335
46340
46345
46350
46355
46360
46365
46370
46375
46380
46385
46390
46395
46400
46405
46410
46415
46420
46425
46430
46435
46440
46445
46450
46455
46460
46465
46470
46475
46480
46485
46490
46495
46500
46505
46510
46515
46520
46525
46530
46535
46540
46545
46550
46555
46560
46565
46570
46575
46580
46585
46590
46595
46600
46605
46610
46614
46615
46620
46625
46630
46635
46640
46645
46650
46655
46660
46665
46670
46675
46680
46685
46690
46695
46700
46705
46710
46715
46720
46725
46730
46735
46740
46745
46750
46755
46760
46765
46770
46775
46780
46785
46790
46795
46800
46805
46810
46815
46820
46825
46830
46835
46840
46845
46850
46855
46860
46865
46870
46875
46880
46885
46890
46895
46900
46905
46910
46915
46920
46925
46930
46935
46940
46945
46950
46955
46960
46965
46970
46975
46980
46985
46990
46995
47000
47005
47010
47015
47020
47025
47030
47035
47040
47045
47050
47055
47060
47065
47070
47075
47080
47085
47090
47095
47100
47105
47110
47115
47120
47125
47130
47135
47140
47145
47150
47155
47160
47165
47170
47175
47180
47185
47190
47195
47200
47205
47210
47215
47220
47225
47230
47235
47240
47245
47250
47251
47255
47260
47265
47270
47275
47280
47285
47290
47295
47300
47305
47310
47315
47320
47325
47330
47335
47340
47345
47350
47355
47360
47365
47370
47375
47380
47385
47390
47395
47400
47405
47410
47415
47420
47425
47430
47435
47440
47445
47450
47455
47460
47465
47470
47475
47480
47485
47490
47495
47500
47505
47510
47515
47520
47525
47530
47535
47540
47545
47550
47555
47560
47565
47570
47575
47580
47585
47590
47595
47600
47605
47610
47615
47620
47621
47625
47626
47630
47631
47635
47636
47640
47645
47650
47655
47660
47665
47670
47675
47680
47685
47690
47695
47700
47705
47710
47715
47720
47725
47730
47735
47740
47745
47750
47755
47760
47765
47770
47775
47780
47785
47790
47795
47800
47805
47810
47815
47820
47825
47830
47835
47840
47845
47850
47855
47860
47865
47870
47875
47880
47885
47890
47895
47900
47905
47910
47915
47920
47925
47930
47935
47940
47945
47950
47954
47955
47960
47965
47970
47975
47980
47985
47990
47995
48000
48005
48010
48015
48020
48025
48030
48035
48040
48045
48050
48055
48060
48065
48070
48075
48080
48085
48086
48090
48091
48095
48100
48105
48110
48115
48120
48121
48125
48130
48135
48140
48145
48150
48155
48160
48165
48170
48175
48180
48185
48190
48195
48200
48205
48210
48215
48220
48225
48230
48235
48240
48245
48250
48255
48260
48265
48270
48275
48280
48285
48290
48295
48300
48305
48310
48315
48320
48325
48330
48335
48340
48345
48350
48355
48360
48365
48370
48375
48380
48385
48390
48395
48400
48405
48410
48415
48420
48425
48430
48435
48440
48445
48450
48455
48460
48465
48470
48475
48480
48485
48490
48495
48500
48505
48510
48515
48520
48525
48530
48535
48540
48545
48550
48555
48560
48565
48570
48575
48580
48585
48590
48595
48600
48605
48610
48611
48615
48620
48625
48626
48627
48629
48630
48635
48640
48645
48650
48655
48660
48665
48666
48668
48669
48670
48674
48675
48676
48680
48683
48684
48685
48690
48695
48696
48699
48700
48705
48710
48715
48719
48720
48721
48725
48730
48735
48740
48741
48745
48746
48800
48805
48810
48815
48820
48825
48830
48835
48840
48845
48850
48855
48860
48865
48870
48875
48880
48885
48890
48895
48900
48901
48905
48910
48915
48920
48925
48930
48935
48940
48945
48950
48955
48960
48965
48970
48975
48980
48985
48990
48995
49000
49005
49010
49015
49020
49025
49030
49035
49040
49045
49050
49055
49060
49065
49070
49075
49080
49085
49090
49095
49100
49105
49110
49115
49120
49125
49130
49135
49140
49145
49150
49155
49160
49165
49170
49175
49180
49185
49190
49195
49200
49205
49210
49215
49220
49225
49230
49235
49240
49245
49250
49255
49260
49265
49270
49275
49280
49285
49290
49295
49300
49305
49310
49315
49320
49325
49330
49335
49340
49345
49350
49355
49360
49365
49370
49375
49380
49385
49390
49395
49400
49405
49410
49415
49420
49425
49430
49435
49440
49445
49450
49455
49460
49465
49470
49475
49480
49485
49490
49495
49500
49505
49510
49515
49520
49525
49530
49535
49540
49545
49550
49555
49560
49565
49570
49575
49580
49585
49590
49595
49600
49605
49610
49615
49620
49625
49630
49635
49640
49645
49650
49655
49660
49665
49670
49675
49680
49685
49690
49695
49700
49705
49710
49715
49720
49725
49730
49735
49740
49745
49750
49755
49760
49765
49770
49775
49780
49785
49790
49795
49800
49805
49810
49815
49819
49820
49825
49830
49835
49840
49845
49850
49855
49860
49865
49870
49874
49875
49876
49880
49885
49890
49895
49900
49905
49910
49915
49920
49921
49925
49930
49935
49940
49945
49946
49950
49955
49960
49965
49970
49975
49980
49984
49985
49990
49995
50000
50005
50010
50015
50020
50021
50024
50025
50030
50035
50040
50045
50050
50055
50060
50065
50070
50075
50080
50085
50090
50095
50100
50155
50160
50165
50170
50175
50180
50185
50190
50191
50195
50200
50205
50210
50215
50220
50221
50225
50230
50235
50240
50245
50250
50255
50260
50265
50270
50271
50272
50273
50274
50275
50280
50285
50290
50291
50292
50293
50294
50295
50300
50305
50310
50315
50320
50325
50330
50335
50340
50345
50350
50355
50356
50360
50365
50370
50375
50380
50385
50390
50395
50400
50405
50406
50410
50415
50420
50425
50429
50430
50435
50440
50445
50450
50455
50460
50465
50470
50475
50480
50485
50490
50495
50500
50505
50510
50515
50520
50525
50530
50535
50540
50545
50546
50550
50555
50560
50565
50570
50575
50578
50579
50580
50585
50586
50590
50595
50600
50605
50610
50615
50620
50625
50630
50635
50640
50645
50650
50655
50660
50665
50670
50675
50676
50677
50680
50685
50690
50691
50695
50700
50705
50710
50715
50720
50721
50725
50730
50731
50735
50740
50745
50746
50750
50755
50760
50765
50766
50767
50770
50775
50780
50785
50786
50790
50795
50800
50801
50805
50806
50810
50811
50815
50820
50825
50830
50835
50890
50895
50900
50905
50909
50910
50915
50920
50925
50930
50935
50940
50945
50950
50955
50960
50965
50970
50975
50980
50985
50990
50995
51000
51005
51010
51015
51020
51025
51026
51030
51035
51036
51037
51038
51039
51040
51045
51050
51055
51060
51065
51066
51070
51075
51080
51085
51090
51095
51100
51105
51110
51115
51120
51125
51130
51135
51140
51145
51150
51155
51160
51165
51170
51175
51180
51182
51183
51184
51185
51186
51190
51191
51195
51200
51205
51210
51215
51220
51225
51230
51235
51240
51295
51300
51305
51310
51315
51320
51325
51330
51335
51340
51345
51350
51355
51360
51365
51370
51375
51380
51385
51390
51395
51400
51405
51410
51415
51420
51425
51430
51435
51440
51445
51450
51455
51460
51465
51470
51475
51480
51485
51490
51495
51500
51505
51510
51515
51520
51525
51530
51535
51540
51545
51548
51549
51550
51555
51560
51565
51570
51575
51580
51585
51589
51590
51591
51595
51600
51605
51610
51615
51620
51625
51630
51635
51640
51645
51650
51651
51655
51660
51665
51670
51675
51680
51685
51690
51745
51750
51755
51760
51765
51770
51775
51780
51785
51790
51795
51800
51805
51810
51865
51870
51875
51880
51885
51890
51895
51900
51905
51910
51915
51920
51925
51930
51935
51940
51945
51950
51955
51959
51960
51965
51970
51975
51980
51985
51990
51995
52000
52005
52010
52015
52020
52025
52030
52035
52040
52045
52050
52055
52060
52065
52070
52075
52130
52135
52140
52145
52150
52155
52160
52165
52170
52175
52180
52185
52190
52195
52200
52205
52210
52215
52220
52225
52230
52235
52239
52240
52245
52250
52255
52260
52265
52270
52273
52274
52275
52280
52285
52290
52295
52300
52305
52310
52315
52320
52375
52380
52385
52390
52395
52400
52405
52410
52415
52420
52425
52430
52435
52440
52445
52450
52455
52460
52465
52470
52475
52480
52485
52490
52495
52500
52505
52510
52515
52520
52525
52530
52535
52540
52545
52550
52555
52560
52565
52570
52575
52580
52585
52590
52595
52600
52605
52610
52615
52620
52625
52630
52635
52640
52645
52650
52655
52660
52665
52670
52675
52680
52685
52690
52695
52700
52705
52710
52715
52720
52721
52724
52725
52730
52731
52732
52735
52740
52745
52750
52755
52760
52765
52770
52775
52780
52785
52790
52795
52800
52805
52810
52815
52820
52825
52830
52835
52840
52845
52850
52855
52860
52865
52870
52875
52880
52885
52886
52890
52895
52900
52905
52910
52915
52920
52925
52930
52935
52940
52945
52950
52955
52960
52965
52969
52970
52975
52980
52985
52990
52995
53000
53005
53010
53015
53020
53025
53030
53035
53040
53045
53050
53055
53060
53061
53065
53070
53075
53080
53085
53090
53095
53096
53100
53105
53110
53115
53120
53125
53130
53135
53140
53141
53145
53150
53155
53160
53165
53170
53174
53175
53180
53185
53190
53195
53200
53205
53210
53215
53220
53225
53230
53235
53240
53241
53245
53250
53255
53260
53265
53270
53275
53280
53285
53286
53287
53288
53289
53290
53295
53300
53305
53306
53310
53315
53320
53325
53345
53350
53355
53410
53415
53420
53421
53425
53430
53435
53436
53440
53445
53450
53455
53460
53465
53470
53475
53480
53485
53490
53495
53500
53505
53510
53515
53520
53525
53530
53535
53540
53545
53550
53555
53560
53565
53570
53575
53580
53585
53640
53645
53650
53655
53660
53665
53670
53675
53680
53735
53736
53740
53745
53750
53755
53759
53760
53765
53766
53770
53775
53780
53785
53790
53791
53795
53800
53805
53810
53815
53820
53825
53830
53835
53840
53845
53850
53855
53860
53865
53870
53875
53880
53885
53890
53895
53900
53905
53910
53965
53970
53975
53980
53985
53990
53995
54000
54005
54010
54015
54020
54025
54030
54035
54040
54045
54050
54055
54060
54065
54070
54075
54080
54085
54090
54145
54150
54155
54160
54165
54170
54175
54180
54185
54190
54195
54200
54205
54210
54215
54220
54225
54230
54235
54240
54245
54250
54255
54260
54265
54270
54275
54280
54285
54290
54295
54300
54305
54310
54315
54320
54325
54330
54335
54340
54345
54350
54355
54360
54365
54370
54375
54380
54385
54390
54395
54400
54405
54410
54415
54420
54425
54430
54435
54440
54445
54450
54455
54460
54465
54470
54475
54480
54485
54490
54495
54500
54505
54510
54515
54520
54525
54530
54535
54540
54545
54550
54555
54560
54565
54570
54575
54580
54585
54590
54595
54600
54605
54610
54615
54620
54625
54630
54635
54640
54645
54650
54655
54660
54665
54670
54675
54680
54685
54690
54695
54700
54705
54710
54715
54720
54725
54730
54735
54740
54745
54750
54751
54752
54755
54760
54765
54770
54775
54780
54785
54790
54795
54800
54805
54810
54815
54820
54825
54830
54835
54840
54845
54850
54855
54860
54865
54870
54875
54880
54885
54890
54895
54900
54905
54910
54915
54920
54921
54922
54923
54924
54925
54930
54935
54940
54945
54950
54955
54960
54965
54970
54975
54980
54985
54990
54995
55000
55005
55010
55015
55020
55024
55025
55030
55031
55035
55040
55045
55050
55055
55060
55065
55070
55075
55080
55085
55090
55095
55100
55105
55110
55115
55120
55125
55130
55135
55140
55145
55150
55155
55160
55165
55170
55175
55180
55185
55190
55195
55196
55200
55205
55210
55215
55220
55225
55230
55235
55240
55245
55250
55305
55310
55315
55320
55325
55330
55335
55340
55345
55350
55355
55360
55365
55370
55375
55380
55385
55390
55395
55400
55405
55410
55415
55420
55425
55430
55435
55440
55445
55450
55455
55460
55465
55470
55475
55480
55485
55490
55495
55500
55505
55510
55515
55520
55525
55530
55535
55540
55545
55550
55555
55560
55565
55570
55575
55580
55583
55584
55585
55586
55587
55588
55589
55590
55595
55600
55605
55610
55615
55620
55622
55624
55625
55630
55635
55640
55645
55650
55655
55660
55664
55665
55670
55675
55680
55685
55690
55695
55700
55705
55710
55715
55720
55725
55730
55735
55740
55745
55750
55755
55760
55765
55770
55775
55830
55835
55840
55841
55845
55850
55855
55860
55865
55870
55875
55880
55885
55890
55895
55900
55905
55910
55915
55920
55925
55930
55935
55940
55945
55950
55955
55960
55965
55970
55975
55980
55985
55990
55991
55995
56000
56005
56010
56015
56020
56025
56030
56035
56040
56045
56050
56055
56060
56065
56070
56075
56080
56085
56090
56095
56100
56105
56110
56115
56120
56125
56130
56135
56140
56145
56150
56155
56160
56165
56170
56175
56180
56185
56190
56195
56200
56205
56210
56215
56220
56225
56230
56235
56240
56245
56250
56255
56260
56265
56270
56275
56280
56285
56290
56295
56300
56305
56310
56315
56320
56325
56330
56335
56340
56345
56350
56355
56360
56365
56370
56375
56380
56385
56390
56395
56400
56405
56410
56415
56420
56425
56430
56435
56440
56445
56450
56455
56460
56465
56470
56475
56480
56485
56490
56495
56500
56505
56510
56515
56520
56525
56530
56535
56540
56545
56550
56555
56560
56565
56570
56575
56580
56585
56590
56595
56600
56605
56610
56615
56620
56625
56630
56635
56640
56645
56646
56650
56655
56660
56665
56670
56675
56680
56685
56690
56700
56710
56715
56720
56725
56730
56740
56745
56750
56755
56760
56765
56770
56775
56780
56785
56790
56795
56800
56805
56810
56815
56820
56825
56830
56835
56840
56845
56850
56855
56860
56865
56870
56875
56880
56885
56890
56895
56950
56955
56960
56965
56970
56975
56980
56985
56990
56995
57000
57004
57005
57010
57015
57020
57025
57030
57035
57040
57045
57050
57055
57060
57065
57070
57073
57075
57080
57085
57090
57095
57100
57105
57110
57115
57120
57125
57130
57135
57140
57145
57150
57155
57160
57165
57170
57175
57180
57185
57190
57195
57200
57205
57210
57215
57220
57225
57230
57235
57240
57245
57250
57255
57260
57265
57270
57275
57280
57285
57290
57295
57300
57305
57310
57315
57320
57325
57330
57335
57340
57345
57350
57355
57360
57365
57370
57375
57430
57435
57440
57445
57450
57455
57460
57465
57470
57475
57480
57485
57490
57495
57500
57505
57510
57515
57520
57525
57530
57535
57540
57545
57550
57555
57560
57565
57570
57574
57575
57580
57585
57590
57595
57600
57605
57610
57615
57620
57625
57630
57635
57640
57645
57650
57655
57660
57665
57670
57675
57680
57685
57690
57695
57700
57705
57710
57715
57720
57725
57730
57735
57740
57745
57750
57755
57760
57765
57770
57775
57780
57785
57790
57791
57795
57800
57805
57810
57815
57816
57820
57825
57830
57835
57840
57845
57850
57855
57860
57865
57870
57875
57880
57881
57884
57885
57890
57895
57900
57905
57910
57915
57920
57925
57930
57935
57940
57945
57950
57955
57960
57965
57970
57975
57980
57985
57990
57995
58000
58005
58010
58015
58020
58025
58030
58035
58040
58045
58050
58055
58060
58065
58070
58075
58080
58085
58090
58095
58150
58151
58155
58160
58170
58175
58180
58185
58190
58195
58200
58205
58210
58215
58220
58225
58230
58235
58240
58245
58250
58255
58260
58265
58270
58275
58280
58285
58290
58295
58296
58297
58298
58299
58300
58301
58302
58303
58304
58305
58306
58307
58310
58315
58320
58325
58330
58335
58340
58345
58350
58355
58360
58365
58370
58375
58380
58385
58390
58395
58400
58405
58410
58415
58420
58422
58425
58430
58435
58436
58440
58445
58447
58450
58455
58460
58465
58470
58475
58480
58481
58485
58490
58495
58500
58505
58510
58515
58520
58525
58530
58535
58540
58545
58550
58555
58575
58580
58585
58590
58595
58600
58605
58610
58615
58620
58625
58630
58635
58640
58645
58650
58655
58665
58670
58675
58680
58685
58690
58691
58695
58700
58705
58710
58715
58720
58725
58780
58835
58840
58845
58850
58855
58860
58865
58870
58875
58880
58885
58890
58895
58900
58905
58910
58915
58920
58925
58930
58935
58940
58945
58950
58955
58960
58965
58970
58975
58980
58981
58985
58990
58995
59000
59005
59006
59010
59015
59020
59025
59030
59035
59040
59045
59050
59055
59060
59065
59070
59075
59080
59085
59090
59095
59100
59105
59110
59115
59120
59125
59130
59135
59140
59145
59150
59155
59160
59164
59165
59170
59175
59180
59185
59190
59195
59200
59205
59210
59215
59220
59225
59230
59231
59235
59240
59245
59250
59255
59260
59265
59270
59275
59280
59285
59290
59295
59296
59300
59304
59305
59310
59315
59320
59325
59330
59335
59390
59395
59400
59405
59410
59415
59420
59425
59426
59430
59439
59455
59510
59515
59520
59525
59530
59535
59540
59545
59550
59555
59560
59565
59570
59575
59580
59585
59590
59595
59600
59605
59609
59610
59615
59620
59625
59630
59635
59640
59645
59650
59655
59660
59665
59670
59675
59680
59685
59690
59695
59700
59705
59710
59715
59720
59725
59730
59735
59740
59745
59750
59755
59760
59765
59770
59775
59780
59785
59790
59795
59800
59805
59810
59815
59820
59825
59830
59835
59840
59845
59850
59855
59860
59865
59870
59875
59880
59885
59890
59895
59900
59905
59910
59915
59920
59925
59930
59935
59940
59945
59950
59955
59960
59965
59970
59975
59980
59985
59990
59995
60000
60005
60010
60015
60020
60025
60030
60035
60040
60045
60050
60055
60060
60065
60070
60075
60080
60085
60090
60095
60100
60105
60110
60115
60120
60125
60130
60135
60140
60145
60150
60155
60160
60165
60170
60175
60180
60185
60190
60195
60200
60205
60210
60215
60220
60225
60230
60235
60240
60245
60250
60255
60260
60265
60270
60275
60280
60285
60290
60295
60300
60305
60310
60315
60320
60325
60330
60335
60340
60345
60350
60355
60360
60365
60370
60375
60380
60385
60390
60395
60400
60405
60410
60415
60420
60425
60430
60435
60440
60445
60450
60455
60460
60465
60470
60475
60480
60485
60490
60495
60500
60505
60510
60515
60520
60525
60530
60535
60540
60545
60550
60555
60556
60560
60565
60570
60575
60580
60585
60590
60595
60596
60600
60605
60610
60615
60620
60625
60630
60635
60640
60645
60650
60655
60660
60665
60670
60675
60676
60677
60678
60679
60680
60681
60682
60683
60684
60685
60686
60687
60688
60689
60690
60695
60700
60705
60710
60715
60716
60720
60723
60725
60726
60727
60728
60729
60730
60735
60740
60745
60750
60755
60760
60765
60770
60825
60880
60935
60940
60945
60950
60955
60960
60965
61020
61025
61030
61035
61036
61040
61042
61045
61050
61055
61060
61065
61070
61071
61075
61077
61080
61085
61090
61095
61100
61105
61110
61115
61120
61125
61130
61135
61189
61190
61195
61200
61205
61210
61215
61219
61220
61225
61230
61235
61240
61245
